project_1/project_1.sim/sim_1/behav/xsim/simulate.log
Vivado Simulator 2020.2
Time resolution is 1 ps
Starting RISC-V Testing
======================

[Cycle 0, Time 54000 ns] PC=0x00000000, Instr=0x00110233, Type=R-TYPE
Control: regFileWe=1, aluSrcMuxSel=0, dataWe=0, branch=0, isJAL=0, isJALR=0
ALU: Control=0000, Result=0x00000017
Data: RF1=0x0000000c, RF2=0x0000000b, Imm=0xxxxxxxxx
Registers:
  x0=0x00000000, x1=0x0000000b, x2=0x0000000c, x3=0x0000000d
  x4=0x00000017, x5=0x0000000f, x6=0x00000010, x7=0x00000011
------------------------------------------

[Cycle 1, Time 64000 ns] PC=0x00000004, Instr=0x401102b3, Type=R-TYPE
Control: regFileWe=1, aluSrcMuxSel=0, dataWe=0, branch=0, isJAL=0, isJALR=0
ALU: Control=1000, Result=0x00000001
Data: RF1=0x0000000c, RF2=0x0000000b, Imm=0xxxxxxxxx
Registers:
  x0=0x00000000, x1=0x0000000b, x2=0x0000000c, x3=0x0000000d
  x4=0x00000017, x5=0x0000000f, x6=0x00000010, x7=0x00000011
------------------------------------------

[Cycle 2, Time 74000 ns] PC=0x00000008, Instr=0x00111333, Type=R-TYPE
Control: regFileWe=1, aluSrcMuxSel=0, dataWe=0, branch=0, isJAL=0, isJALR=0
ALU: Control=0001, Result=0x00006000
Data: RF1=0x0000000c, RF2=0x0000000b, Imm=0xxxxxxxxx
Registers:
  x0=0x00000000, x1=0x0000000b, x2=0x0000000c, x3=0x0000000d
  x4=0x00000017, x5=0x00000001, x6=0x00000010, x7=0x00000011
------------------------------------------

[Cycle 3, Time 84000 ns] PC=0x0000000c, Instr=0x001123b3, Type=R-TYPE
Control: regFileWe=1, aluSrcMuxSel=0, dataWe=0, branch=0, isJAL=0, isJALR=0
ALU: Control=0010, Result=0x00000000
Data: RF1=0x0000000c, RF2=0x0000000b, Imm=0xxxxxxxxx
Registers:
  x0=0x00000000, x1=0x0000000b, x2=0x0000000c, x3=0x0000000d
  x4=0x00000017, x5=0x00000001, x6=0x00006000, x7=0x00000011
------------------------------------------

[Cycle 4, Time 94000 ns] PC=0x00000010, Instr=0x00113433, Type=R-TYPE
Control: regFileWe=1, aluSrcMuxSel=0, dataWe=0, branch=0, isJAL=0, isJALR=0
ALU: Control=0011, Result=0x00000000
Data: RF1=0x0000000c, RF2=0x0000000b, Imm=0xxxxxxxxx
Registers:
  x0=0x00000000, x1=0x0000000b, x2=0x0000000c, x3=0x0000000d
  x4=0x00000017, x5=0x00000001, x6=0x00006000, x7=0x00000000
------------------------------------------

[Cycle 5, Time 104000 ns] PC=0x00000014, Instr=0x001144b3, Type=R-TYPE
Control: regFileWe=1, aluSrcMuxSel=0, dataWe=0, branch=0, isJAL=0, isJALR=0
ALU: Control=0100, Result=0x00000007
Data: RF1=0x0000000c, RF2=0x0000000b, Imm=0xxxxxxxxx
Registers:
  x0=0x00000000, x1=0x0000000b, x2=0x0000000c, x3=0x0000000d
  x4=0x00000017, x5=0x00000001, x6=0x00006000, x7=0x00000000
------------------------------------------

[Cycle 6, Time 114000 ns] PC=0x00000018, Instr=0x00115533, Type=R-TYPE
Control: regFileWe=1, aluSrcMuxSel=0, dataWe=0, branch=0, isJAL=0, isJALR=0
ALU: Control=0101, Result=0x00000000
Data: RF1=0x0000000c, RF2=0x0000000b, Imm=0xxxxxxxxx
Registers:
  x0=0x00000000, x1=0x0000000b, x2=0x0000000c, x3=0x0000000d
  x4=0x00000017, x5=0x00000001, x6=0x00006000, x7=0x00000000
------------------------------------------

[Cycle 7, Time 124000 ns] PC=0x0000001c, Instr=0x401155b3, Type=R-TYPE
Control: regFileWe=1, aluSrcMuxSel=0, dataWe=0, branch=0, isJAL=0, isJALR=0
ALU: Control=1101, Result=0x00000000
Data: RF1=0x0000000c, RF2=0x0000000b, Imm=0xxxxxxxxx
Registers:
  x0=0x00000000, x1=0x0000000b, x2=0x0000000c, x3=0x0000000d
  x4=0x00000017, x5=0x00000001, x6=0x00006000, x7=0x00000000
------------------------------------------

[Cycle 8, Time 134000 ns] PC=0x00000020, Instr=0x00116633, Type=R-TYPE
Control: regFileWe=1, aluSrcMuxSel=0, dataWe=0, branch=0, isJAL=0, isJALR=0
ALU: Control=0110, Result=0x0000000f
Data: RF1=0x0000000c, RF2=0x0000000b, Imm=0xxxxxxxxx
Registers:
  x0=0x00000000, x1=0x0000000b, x2=0x0000000c, x3=0x0000000d
  x4=0x00000017, x5=0x00000001, x6=0x00006000, x7=0x00000000
------------------------------------------

[Cycle 9, Time 144000 ns] PC=0x00000024, Instr=0x001176b3, Type=R-TYPE
Control: regFileWe=1, aluSrcMuxSel=0, dataWe=0, branch=0, isJAL=0, isJALR=0
ALU: Control=0111, Result=0x00000008
Data: RF1=0x0000000c, RF2=0x0000000b, Imm=0xxxxxxxxx
Registers:
  x0=0x00000000, x1=0x0000000b, x2=0x0000000c, x3=0x0000000d
  x4=0x00000017, x5=0x00000001, x6=0x00006000, x7=0x00000000
------------------------------------------

[Cycle 10, Time 154000 ns] PC=0x00000028, Instr=0x00202423, Type=S-TYPE
Control: regFileWe=0, aluSrcMuxSel=1, dataWe=1, branch=0, isJAL=0, isJALR=0
ALU: Control=0000, Result=0x00008000
Data: RF1=0x00000000, RF2=0x0000000c, Imm=0x00000008
Registers:
  x0=0x00000000, x1=0x0000000b, x2=0x0000000c, x3=0x0000000d
  x4=0x00000017, x5=0x00000001, x6=0x00006000, x7=0x00000000
Memory: Addr=0x00008000, WData=0x0000000c, RData=0xxxxxxxxx
------------------------------------------

[Cycle 11, Time 164000 ns] PC=0x0000002c, Instr=0x00102223, Type=S-TYPE
Control: regFileWe=0, aluSrcMuxSel=1, dataWe=1, branch=0, isJAL=0, isJALR=0
ALU: Control=0000, Result=0x00004000
Data: RF1=0x00000000, RF2=0x0000000b, Imm=0x00000004
Registers:
  x0=0x00000000, x1=0x0000000b, x2=0x0000000c, x3=0x0000000d
  x4=0x00000017, x5=0x00000001, x6=0x00006000, x7=0x00000000
Memory: Addr=0x00004000, WData=0x0000000b, RData=0xxxxxxxxx
------------------------------------------

[Cycle 12, Time 174000 ns] PC=0x00000030, Instr=0x00802183, Type=L-TYPE
Control: regFileWe=1, aluSrcMuxSel=1, dataWe=0, branch=0, isJAL=0, isJALR=0
ALU: Control=0000, Result=0x00008000
Data: RF1=0x00000000, RF2=0x00000000, Imm=0x00000008
Registers:
  x0=0x00000000, x1=0x0000000b, x2=0x0000000c, x3=0x0000000d
  x4=0x00000017, x5=0x00000001, x6=0x00006000, x7=0x00000000
Memory: Addr=0x00008000, WData=0x00000000, RData=0xxxxxxxxx
------------------------------------------

[Cycle 13, Time 184000 ns] PC=0x00000034, Instr=0x00402703, Type=L-TYPE
Control: regFileWe=1, aluSrcMuxSel=1, dataWe=0, branch=0, isJAL=0, isJALR=0
ALU: Control=0000, Result=0x00004000
Data: RF1=0x00000000, RF2=0x00000017, Imm=0x00000004
Registers:
  x0=0x00000000, x1=0x0000000b, x2=0x0000000c, x3=0xxxxxxxxx
  x4=0x00000017, x5=0x00000001, x6=0x00006000, x7=0x00000000
Memory: Addr=0x00004000, WData=0x00000017, RData=0xxxxxxxxx
------------------------------------------

[Cycle 14, Time 194000 ns] PC=0x00000038, Instr=0x00100093, Type=I-TYPE
Control: regFileWe=1, aluSrcMuxSel=1, dataWe=0, branch=0, isJAL=0, isJALR=0
ALU: Control=0000, Result=0x00001000
Data: RF1=0x00000000, RF2=0x0000000b, Imm=0x00000001
Registers:
  x0=0x00000000, x1=0x0000000b, x2=0x0000000c, x3=0xxxxxxxxx
  x4=0x00000017, x5=0x00000001, x6=0x00006000, x7=0x00000000
------------------------------------------

[Cycle 15, Time 204000 ns] PC=0x0000003c, Instr=0x00209313, Type=I-TYPE
Control: regFileWe=1, aluSrcMuxSel=1, dataWe=0, branch=0, isJAL=0, isJALR=0
ALU: Control=0001, Result=0x00004000
Data: RF1=0x00001000, RF2=0x0000000c, Imm=0x00000002
Registers:
  x0=0x00000000, x1=0x00001000, x2=0x0000000c, x3=0xxxxxxxxx
  x4=0x00000017, x5=0x00000001, x6=0x00006000, x7=0x00000000
------------------------------------------

[Cycle 16, Time 214000 ns] PC=0x00000040, Instr=0x0020d513, Type=I-TYPE
Control: regFileWe=1, aluSrcMuxSel=1, dataWe=0, branch=0, isJAL=0, isJALR=0
ALU: Control=0101, Result=0x00000400
Data: RF1=0x00001000, RF2=0x0000000c, Imm=0x00000002
Registers:
  x0=0x00000000, x1=0x00001000, x2=0x0000000c, x3=0xxxxxxxxx
  x4=0x00000017, x5=0x00000001, x6=0x00004000, x7=0x00000000
------------------------------------------

[Cycle 17, Time 224000 ns] PC=0x00000044, Instr=0x4020d593, Type=I-TYPE
Control: regFileWe=1, aluSrcMuxSel=1, dataWe=0, branch=0, isJAL=0, isJALR=0
ALU: Control=1101, Result=0x00000400
Data: RF1=0x00001000, RF2=0x0000000c, Imm=0x00000002
Registers:
  x0=0x00000000, x1=0x00001000, x2=0x0000000c, x3=0xxxxxxxxx
  x4=0x00000017, x5=0x00000001, x6=0x00004000, x7=0x00000000
------------------------------------------

[Cycle 18, Time 234000 ns] PC=0x00000048, Instr=0x00210663, Type=B-TYPE
Control: regFileWe=0, aluSrcMuxSel=0, dataWe=0, branch=1, isJAL=0, isJALR=0
ALU: Control=0000, Result=0x00000018
Data: RF1=0x0000000c, RF2=0x0000000c, Imm=0x0000000c
Registers:
  x0=0x00000000, x1=0x00001000, x2=0x0000000c, x3=0xxxxxxxxx
  x4=0x00000017, x5=0x00000001, x6=0x00004000, x7=0x00000000
------------------------------------------

[Cycle 19, Time 244000 ns] PC=0x00000054, Instr=0x00003417, Type=AUIPC
Control: regFileWe=1, aluSrcMuxSel=1, dataWe=0, branch=0, isJAL=0, isJALR=0
ALU: Control=0000, Result=0x00003054
Data: RF1=0x00000000, RF2=0x00000000, Imm=0x00003000
Registers:
  x0=0x00000000, x1=0x00001000, x2=0x0000000c, x3=0xxxxxxxxx
  x4=0x00000017, x5=0x00000001, x6=0x00004000, x7=0x00000000
------------------------------------------

[Cycle 20, Time 254000 ns] PC=0x00000058, Instr=0x004000ef, Type=JAL
Control: regFileWe=1, aluSrcMuxSel=0, dataWe=0, branch=1, isJAL=1, isJALR=0
ALU: Control=1010, Result=0x0000005c
Data: RF1=0x00000000, RF2=0x00000017, Imm=0x00000004
Registers:
  x0=0x00000000, x1=0x00001000, x2=0x0000000c, x3=0xxxxxxxxx
  x4=0x00000017, x5=0x00000001, x6=0x00004000, x7=0x00000000
------------------------------------------

[Cycle 21, Time 264000 ns] PC=0x0000005c, Instr=0x00408167, Type=JALR
Control: regFileWe=1, aluSrcMuxSel=0, dataWe=0, branch=1, isJAL=0, isJALR=1
ALU: Control=1011, Result=0x00000060
Data: RF1=0x0000005c, RF2=0x00000017, Imm=0x00000004
Registers:
  x0=0x00000000, x1=0x0000005c, x2=0x0000000c, x3=0xxxxxxxxx
  x4=0x00000017, x5=0x00000001, x6=0x00004000, x7=0x00000000
------------------------------------------

[Cycle 22, Time 274000 ns] PC=0x00000060, Instr=0x000002b7, Type=LUI
Control: regFileWe=1, aluSrcMuxSel=1, dataWe=0, branch=0, isJAL=0, isJALR=0
ALU: Control=0000, Result=0x00000060
Data: RF1=0x00000000, RF2=0x00000000, Imm=0x00000000
Registers:
  x0=0x00000000, x1=0x0000005c, x2=0x00000060, x3=0xxxxxxxxx
  x4=0x00000017, x5=0x00000001, x6=0x00004000, x7=0x00000000
------------------------------------------

[Cycle 23, Time 284000 ns] PC=0x00000064, Instr=0x0042a283, Type=L-TYPE
Control: regFileWe=1, aluSrcMuxSel=1, dataWe=0, branch=0, isJAL=0, isJALR=0
ALU: Control=0000, Result=0x00000064
Data: RF1=0x00000060, RF2=0x00000017, Imm=0x00000004
Registers:
  x0=0x00000000, x1=0x0000005c, x2=0x00000060, x3=0xxxxxxxxx
  x4=0x00000017, x5=0x00000060, x6=0x00004000, x7=0x00000000
Memory: Addr=0x00000064, WData=0x00000017, RData=0xxxxxxxxx
------------------------------------------

[Cycle 24, Time 294000 ns] PC=0x00000068, Instr=0x0052a023, Type=S-TYPE
Control: regFileWe=0, aluSrcMuxSel=1, dataWe=1, branch=0, isJAL=0, isJALR=0
ALU: Control=0000, Result=0xxxxxxxxx
Data: RF1=0xxxxxxxxx, RF2=0xxxxxxxxx, Imm=0x00000000
Registers:
  x0=0x00000000, x1=0x0000005c, x2=0x00000060, x3=0xxxxxxxxx
  x4=0x00000017, x5=0xxxxxxxxx, x6=0x00004000, x7=0x00000000
Memory: Addr=0xxxxxxxxx, WData=0xxxxxxxxx, RData=0xxxxxxxxx
------------------------------------------

[Cycle 25, Time 304000 ns] PC=0x0000006c, Instr=0x004000ef, Type=JAL
Control: regFileWe=1, aluSrcMuxSel=0, dataWe=0, branch=1, isJAL=1, isJALR=0
ALU: Control=1010, Result=0x00000070
Data: RF1=0x00000000, RF2=0x00000017, Imm=0x00000004
Registers:
  x0=0x00000000, x1=0x0000005c, x2=0x00000060, x3=0xxxxxxxxx
  x4=0x00000017, x5=0xxxxxxxxx, x6=0x00004000, x7=0x00000000
------------------------------------------

[Cycle 26, Time 314000 ns] PC=0x00000070, Instr=0x00008067, Type=JALR
Control: regFileWe=1, aluSrcMuxSel=0, dataWe=0, branch=1, isJAL=0, isJALR=1
ALU: Control=1011, Result=0x00000074
Data: RF1=0x00000070, RF2=0x00000000, Imm=0x00000000
Registers:
  x0=0x00000000, x1=0x00000070, x2=0x00000060, x3=0xxxxxxxxx
  x4=0x00000017, x5=0xxxxxxxxx, x6=0x00004000, x7=0x00000000
------------------------------------------

[Cycle 27, Time 324000 ns] PC=0x00000070, Instr=0x00008067, Type=JALR
Control: regFileWe=1, aluSrcMuxSel=0, dataWe=0, branch=1, isJAL=0, isJALR=1
ALU: Control=1011, Result=0x00000074
Data: RF1=0x00000070, RF2=0x00000000, Imm=0x00000000
Registers:
  x0=0x00000000, x1=0x00000070, x2=0x00000060, x3=0xxxxxxxxx
  x4=0x00000017, x5=0xxxxxxxxx, x6=0x00004000, x7=0x00000000
------------------------------------------

[Cycle 28, Time 334000 ns] PC=0x00000070, Instr=0x00008067, Type=JALR
Control: regFileWe=1, aluSrcMuxSel=0, dataWe=0, branch=1, isJAL=0, isJALR=1
ALU: Control=1011, Result=0x00000074
Data: RF1=0x00000070, RF2=0x00000000, Imm=0x00000000
Registers:
  x0=0x00000000, x1=0x00000070, x2=0x00000060, x3=0xxxxxxxxx
  x4=0x00000017, x5=0xxxxxxxxx, x6=0x00004000, x7=0x00000000
------------------------------------------

[Cycle 29, Time 344000 ns] PC=0x00000070, Instr=0x00008067, Type=JALR
Control: regFileWe=1, aluSrcMuxSel=0, dataWe=0, branch=1, isJAL=0, isJALR=1
ALU: Control=1011, Result=0x00000074
Data: RF1=0x00000070, RF2=0x00000000, Imm=0x00000000
Registers:
  x0=0x00000000, x1=0x00000070, x2=0x00000060, x3=0xxxxxxxxx
  x4=0x00000017, x5=0xxxxxxxxx, x6=0x00004000, x7=0x00000000
------------------------------------------

[Cycle 30, Time 354000 ns] PC=0x00000070, Instr=0x00008067, Type=JALR
Control: regFileWe=1, aluSrcMuxSel=0, dataWe=0, branch=1, isJAL=0, isJALR=1
ALU: Control=1011, Result=0x00000074
Data: RF1=0x00000070, RF2=0x00000000, Imm=0x00000000
Registers:
  x0=0x00000000, x1=0x00000070, x2=0x00000060, x3=0xxxxxxxxx
  x4=0x00000017, x5=0xxxxxxxxx, x6=0x00004000, x7=0x00000000
------------------------------------------

[Cycle 31, Time 364000 ns] PC=0x00000070, Instr=0x00008067, Type=JALR
Control: regFileWe=1, aluSrcMuxSel=0, dataWe=0, branch=1, isJAL=0, isJALR=1
ALU: Control=1011, Result=0x00000074
Data: RF1=0x00000070, RF2=0x00000000, Imm=0x00000000
Registers:
  x0=0x00000000, x1=0x00000070, x2=0x00000060, x3=0xxxxxxxxx
  x4=0x00000017, x5=0xxxxxxxxx, x6=0x00004000, x7=0x00000000
------------------------------------------

[Cycle 32, Time 374000 ns] PC=0x00000070, Instr=0x00008067, Type=JALR
Control: regFileWe=1, aluSrcMuxSel=0, dataWe=0, branch=1, isJAL=0, isJALR=1
ALU: Control=1011, Result=0x00000074
Data: RF1=0x00000070, RF2=0x00000000, Imm=0x00000000
Registers:
  x0=0x00000000, x1=0x00000070, x2=0x00000060, x3=0xxxxxxxxx
  x4=0x00000017, x5=0xxxxxxxxx, x6=0x00004000, x7=0x00000000
------------------------------------------

[Cycle 33, Time 384000 ns] PC=0x00000070, Instr=0x00008067, Type=JALR
Control: regFileWe=1, aluSrcMuxSel=0, dataWe=0, branch=1, isJAL=0, isJALR=1
ALU: Control=1011, Result=0x00000074
Data: RF1=0x00000070, RF2=0x00000000, Imm=0x00000000
Registers:
  x0=0x00000000, x1=0x00000070, x2=0x00000060, x3=0xxxxxxxxx
  x4=0x00000017, x5=0xxxxxxxxx, x6=0x00004000, x7=0x00000000
------------------------------------------

[Cycle 34, Time 394000 ns] PC=0x00000070, Instr=0x00008067, Type=JALR
Control: regFileWe=1, aluSrcMuxSel=0, dataWe=0, branch=1, isJAL=0, isJALR=1
ALU: Control=1011, Result=0x00000074
Data: RF1=0x00000070, RF2=0x00000000, Imm=0x00000000
Registers:
  x0=0x00000000, x1=0x00000070, x2=0x00000060, x3=0xxxxxxxxx
  x4=0x00000017, x5=0xxxxxxxxx, x6=0x00004000, x7=0x00000000
------------------------------------------

[Cycle 35, Time 404000 ns] PC=0x00000070, Instr=0x00008067, Type=JALR
Control: regFileWe=1, aluSrcMuxSel=0, dataWe=0, branch=1, isJAL=0, isJALR=1
ALU: Control=1011, Result=0x00000074
Data: RF1=0x00000070, RF2=0x00000000, Imm=0x00000000
Registers:
  x0=0x00000000, x1=0x00000070, x2=0x00000060, x3=0xxxxxxxxx
  x4=0x00000017, x5=0xxxxxxxxx, x6=0x00004000, x7=0x00000000
------------------------------------------

[Cycle 36, Time 414000 ns] PC=0x00000070, Instr=0x00008067, Type=JALR
Control: regFileWe=1, aluSrcMuxSel=0, dataWe=0, branch=1, isJAL=0, isJALR=1
ALU: Control=1011, Result=0x00000074
Data: RF1=0x00000070, RF2=0x00000000, Imm=0x00000000
Registers:
  x0=0x00000000, x1=0x00000070, x2=0x00000060, x3=0xxxxxxxxx
  x4=0x00000017, x5=0xxxxxxxxx, x6=0x00004000, x7=0x00000000
------------------------------------------

[Cycle 37, Time 424000 ns] PC=0x00000070, Instr=0x00008067, Type=JALR
Control: regFileWe=1, aluSrcMuxSel=0, dataWe=0, branch=1, isJAL=0, isJALR=1
ALU: Control=1011, Result=0x00000074
Data: RF1=0x00000070, RF2=0x00000000, Imm=0x00000000
Registers:
  x0=0x00000000, x1=0x00000070, x2=0x00000060, x3=0xxxxxxxxx
  x4=0x00000017, x5=0xxxxxxxxx, x6=0x00004000, x7=0x00000000
------------------------------------------

[Cycle 38, Time 434000 ns] PC=0x00000070, Instr=0x00008067, Type=JALR
Control: regFileWe=1, aluSrcMuxSel=0, dataWe=0, branch=1, isJAL=0, isJALR=1
ALU: Control=1011, Result=0x00000074
Data: RF1=0x00000070, RF2=0x00000000, Imm=0x00000000
Registers:
  x0=0x00000000, x1=0x00000070, x2=0x00000060, x3=0xxxxxxxxx
  x4=0x00000017, x5=0xxxxxxxxx, x6=0x00004000, x7=0x00000000
------------------------------------------

[Cycle 39, Time 444000 ns] PC=0x00000070, Instr=0x00008067, Type=JALR
Control: regFileWe=1, aluSrcMuxSel=0, dataWe=0, branch=1, isJAL=0, isJALR=1
ALU: Control=1011, Result=0x00000074
Data: RF1=0x00000070, RF2=0x00000000, Imm=0x00000000
Registers:
  x0=0x00000000, x1=0x00000070, x2=0x00000060, x3=0xxxxxxxxx
  x4=0x00000017, x5=0xxxxxxxxx, x6=0x00004000, x7=0x00000000
------------------------------------------

[Cycle 40, Time 454000 ns] PC=0x00000070, Instr=0x00008067, Type=JALR
Control: regFileWe=1, aluSrcMuxSel=0, dataWe=0, branch=1, isJAL=0, isJALR=1
ALU: Control=1011, Result=0x00000074
Data: RF1=0x00000070, RF2=0x00000000, Imm=0x00000000
Registers:
  x0=0x00000000, x1=0x00000070, x2=0x00000060, x3=0xxxxxxxxx
  x4=0x00000017, x5=0xxxxxxxxx, x6=0x00004000, x7=0x00000000
------------------------------------------

[Cycle 41, Time 464000 ns] PC=0x00000070, Instr=0x00008067, Type=JALR
Control: regFileWe=1, aluSrcMuxSel=0, dataWe=0, branch=1, isJAL=0, isJALR=1
ALU: Control=1011, Result=0x00000074
Data: RF1=0x00000070, RF2=0x00000000, Imm=0x00000000
Registers:
  x0=0x00000000, x1=0x00000070, x2=0x00000060, x3=0xxxxxxxxx
  x4=0x00000017, x5=0xxxxxxxxx, x6=0x00004000, x7=0x00000000
------------------------------------------

[Cycle 42, Time 474000 ns] PC=0x00000070, Instr=0x00008067, Type=JALR
Control: regFileWe=1, aluSrcMuxSel=0, dataWe=0, branch=1, isJAL=0, isJALR=1
ALU: Control=1011, Result=0x00000074
Data: RF1=0x00000070, RF2=0x00000000, Imm=0x00000000
Registers:
  x0=0x00000000, x1=0x00000070, x2=0x00000060, x3=0xxxxxxxxx
  x4=0x00000017, x5=0xxxxxxxxx, x6=0x00004000, x7=0x00000000
------------------------------------------

[Cycle 43, Time 484000 ns] PC=0x00000070, Instr=0x00008067, Type=JALR
Control: regFileWe=1, aluSrcMuxSel=0, dataWe=0, branch=1, isJAL=0, isJALR=1
ALU: Control=1011, Result=0x00000074
Data: RF1=0x00000070, RF2=0x00000000, Imm=0x00000000
Registers:
  x0=0x00000000, x1=0x00000070, x2=0x00000060, x3=0xxxxxxxxx
  x4=0x00000017, x5=0xxxxxxxxx, x6=0x00004000, x7=0x00000000
------------------------------------------

[Cycle 44, Time 494000 ns] PC=0x00000070, Instr=0x00008067, Type=JALR
Control: regFileWe=1, aluSrcMuxSel=0, dataWe=0, branch=1, isJAL=0, isJALR=1
ALU: Control=1011, Result=0x00000074
Data: RF1=0x00000070, RF2=0x00000000, Imm=0x00000000
Registers:
  x0=0x00000000, x1=0x00000070, x2=0x00000060, x3=0xxxxxxxxx
  x4=0x00000017, x5=0xxxxxxxxx, x6=0x00004000, x7=0x00000000
------------------------------------------

[Cycle 45, Time 504000 ns] PC=0x00000070, Instr=0x00008067, Type=JALR
Control: regFileWe=1, aluSrcMuxSel=0, dataWe=0, branch=1, isJAL=0, isJALR=1
ALU: Control=1011, Result=0x00000074
Data: RF1=0x00000070, RF2=0x00000000, Imm=0x00000000
Registers:
  x0=0x00000000, x1=0x00000070, x2=0x00000060, x3=0xxxxxxxxx
  x4=0x00000017, x5=0xxxxxxxxx, x6=0x00004000, x7=0x00000000
------------------------------------------

[Cycle 46, Time 514000 ns] PC=0x00000070, Instr=0x00008067, Type=JALR
Control: regFileWe=1, aluSrcMuxSel=0, dataWe=0, branch=1, isJAL=0, isJALR=1
ALU: Control=1011, Result=0x00000074
Data: RF1=0x00000070, RF2=0x00000000, Imm=0x00000000
Registers:
  x0=0x00000000, x1=0x00000070, x2=0x00000060, x3=0xxxxxxxxx
  x4=0x00000017, x5=0xxxxxxxxx, x6=0x00004000, x7=0x00000000
------------------------------------------

[Cycle 47, Time 524000 ns] PC=0x00000070, Instr=0x00008067, Type=JALR
Control: regFileWe=1, aluSrcMuxSel=0, dataWe=0, branch=1, isJAL=0, isJALR=1
ALU: Control=1011, Result=0x00000074
Data: RF1=0x00000070, RF2=0x00000000, Imm=0x00000000
Registers:
  x0=0x00000000, x1=0x00000070, x2=0x00000060, x3=0xxxxxxxxx
  x4=0x00000017, x5=0xxxxxxxxx, x6=0x00004000, x7=0x00000000
------------------------------------------

[Cycle 48, Time 534000 ns] PC=0x00000070, Instr=0x00008067, Type=JALR
Control: regFileWe=1, aluSrcMuxSel=0, dataWe=0, branch=1, isJAL=0, isJALR=1
ALU: Control=1011, Result=0x00000074
Data: RF1=0x00000070, RF2=0x00000000, Imm=0x00000000
Registers:
  x0=0x00000000, x1=0x00000070, x2=0x00000060, x3=0xxxxxxxxx
  x4=0x00000017, x5=0xxxxxxxxx, x6=0x00004000, x7=0x00000000
------------------------------------------

[Cycle 49, Time 544000 ns] PC=0x00000070, Instr=0x00008067, Type=JALR
Control: regFileWe=1, aluSrcMuxSel=0, dataWe=0, branch=1, isJAL=0, isJALR=1
ALU: Control=1011, Result=0x00000074
Data: RF1=0x00000070, RF2=0x00000000, Imm=0x00000000
Registers:
  x0=0x00000000, x1=0x00000070, x2=0x00000060, x3=0xxxxxxxxx
  x4=0x00000017, x5=0xxxxxxxxx, x6=0x00004000, x7=0x00000000
------------------------------------------

[Cycle 50, Time 554000 ns] PC=0x00000070, Instr=0x00008067, Type=JALR
Control: regFileWe=1, aluSrcMuxSel=0, dataWe=0, branch=1, isJAL=0, isJALR=1
ALU: Control=1011, Result=0x00000074
Data: RF1=0x00000070, RF2=0x00000000, Imm=0x00000000
Registers:
  x0=0x00000000, x1=0x00000070, x2=0x00000060, x3=0xxxxxxxxx
  x4=0x00000017, x5=0xxxxxxxxx, x6=0x00004000, x7=0x00000000
------------------------------------------

[Cycle 51, Time 564000 ns] PC=0x00000070, Instr=0x00008067, Type=JALR
Control: regFileWe=1, aluSrcMuxSel=0, dataWe=0, branch=1, isJAL=0, isJALR=1
ALU: Control=1011, Result=0x00000074
Data: RF1=0x00000070, RF2=0x00000000, Imm=0x00000000
Registers:
  x0=0x00000000, x1=0x00000070, x2=0x00000060, x3=0xxxxxxxxx
  x4=0x00000017, x5=0xxxxxxxxx, x6=0x00004000, x7=0x00000000
------------------------------------------

[Cycle 52, Time 574000 ns] PC=0x00000070, Instr=0x00008067, Type=JALR
Control: regFileWe=1, aluSrcMuxSel=0, dataWe=0, branch=1, isJAL=0, isJALR=1
ALU: Control=1011, Result=0x00000074
Data: RF1=0x00000070, RF2=0x00000000, Imm=0x00000000
Registers:
  x0=0x00000000, x1=0x00000070, x2=0x00000060, x3=0xxxxxxxxx
  x4=0x00000017, x5=0xxxxxxxxx, x6=0x00004000, x7=0x00000000
------------------------------------------

[Cycle 53, Time 584000 ns] PC=0x00000070, Instr=0x00008067, Type=JALR
Control: regFileWe=1, aluSrcMuxSel=0, dataWe=0, branch=1, isJAL=0, isJALR=1
ALU: Control=1011, Result=0x00000074
Data: RF1=0x00000070, RF2=0x00000000, Imm=0x00000000
Registers:
  x0=0x00000000, x1=0x00000070, x2=0x00000060, x3=0xxxxxxxxx
  x4=0x00000017, x5=0xxxxxxxxx, x6=0x00004000, x7=0x00000000
------------------------------------------

[Cycle 54, Time 594000 ns] PC=0x00000070, Instr=0x00008067, Type=JALR
Control: regFileWe=1, aluSrcMuxSel=0, dataWe=0, branch=1, isJAL=0, isJALR=1
ALU: Control=1011, Result=0x00000074
Data: RF1=0x00000070, RF2=0x00000000, Imm=0x00000000
Registers:
  x0=0x00000000, x1=0x00000070, x2=0x00000060, x3=0xxxxxxxxx
  x4=0x00000017, x5=0xxxxxxxxx, x6=0x00004000, x7=0x00000000
------------------------------------------

[Cycle 55, Time 604000 ns] PC=0x00000070, Instr=0x00008067, Type=JALR
Control: regFileWe=1, aluSrcMuxSel=0, dataWe=0, branch=1, isJAL=0, isJALR=1
ALU: Control=1011, Result=0x00000074
Data: RF1=0x00000070, RF2=0x00000000, Imm=0x00000000
Registers:
  x0=0x00000000, x1=0x00000070, x2=0x00000060, x3=0xxxxxxxxx
  x4=0x00000017, x5=0xxxxxxxxx, x6=0x00004000, x7=0x00000000
------------------------------------------

[Cycle 56, Time 614000 ns] PC=0x00000070, Instr=0x00008067, Type=JALR
Control: regFileWe=1, aluSrcMuxSel=0, dataWe=0, branch=1, isJAL=0, isJALR=1
ALU: Control=1011, Result=0x00000074
Data: RF1=0x00000070, RF2=0x00000000, Imm=0x00000000
Registers:
  x0=0x00000000, x1=0x00000070, x2=0x00000060, x3=0xxxxxxxxx
  x4=0x00000017, x5=0xxxxxxxxx, x6=0x00004000, x7=0x00000000
------------------------------------------

[Cycle 57, Time 624000 ns] PC=0x00000070, Instr=0x00008067, Type=JALR
Control: regFileWe=1, aluSrcMuxSel=0, dataWe=0, branch=1, isJAL=0, isJALR=1
ALU: Control=1011, Result=0x00000074
Data: RF1=0x00000070, RF2=0x00000000, Imm=0x00000000
Registers:
  x0=0x00000000, x1=0x00000070, x2=0x00000060, x3=0xxxxxxxxx
  x4=0x00000017, x5=0xxxxxxxxx, x6=0x00004000, x7=0x00000000
------------------------------------------

[Cycle 58, Time 634000 ns] PC=0x00000070, Instr=0x00008067, Type=JALR
Control: regFileWe=1, aluSrcMuxSel=0, dataWe=0, branch=1, isJAL=0, isJALR=1
ALU: Control=1011, Result=0x00000074
Data: RF1=0x00000070, RF2=0x00000000, Imm=0x00000000
Registers:
  x0=0x00000000, x1=0x00000070, x2=0x00000060, x3=0xxxxxxxxx
  x4=0x00000017, x5=0xxxxxxxxx, x6=0x00004000, x7=0x00000000
------------------------------------------

[Cycle 59, Time 644000 ns] PC=0x00000070, Instr=0x00008067, Type=JALR
Control: regFileWe=1, aluSrcMuxSel=0, dataWe=0, branch=1, isJAL=0, isJALR=1
ALU: Control=1011, Result=0x00000074
Data: RF1=0x00000070, RF2=0x00000000, Imm=0x00000000
Registers:
  x0=0x00000000, x1=0x00000070, x2=0x00000060, x3=0xxxxxxxxx
  x4=0x00000017, x5=0xxxxxxxxx, x6=0x00004000, x7=0x00000000
------------------------------------------

[Cycle 60, Time 654000 ns] PC=0x00000070, Instr=0x00008067, Type=JALR
Control: regFileWe=1, aluSrcMuxSel=0, dataWe=0, branch=1, isJAL=0, isJALR=1
ALU: Control=1011, Result=0x00000074
