project_1/project_1.sim/sim_1/behav/xsim/tb_waveform.vcd
$date
   Sun Apr 13 05:06:16 2025
$end
$version
  2020.2
$end
$timescale
  1ps
$end
$scope module tb_top $end
$var reg 1 ! clk $end
$var reg 1 " reset $end
$var reg 32 # instr_count $end
$scope module DUT $end
$var wire 1 $ clk $end
$var wire 1 % reset $end
$var reg 32 & instrMemAddr [31:0] $end
$var reg 32 ' instrCode [31:0] $end
$var reg 32 ( dataAddr [31:0] $end
$var reg 32 ) dataWData [31:0] $end
$var reg 32 * dataRData [31:0] $end
$var reg 1 + regFileWe $end
$var reg 4 , aluControl [3:0] $end
$var reg 1 - aluSrcMuxSel $end
$var reg 1 . dataWe $end
$var reg 2 / RFWDSrcMuxSel [1:0] $end
$var reg 1 0 branch $end
$var reg 1 1 aluASelect $end
$var reg 1 2 LUType $end
$var reg 1 3 AUType $end
$var reg 1 4 isJALR $end
$scope module Core $end
$var wire 1 $ clk $end
$var wire 1 % reset $end
$var reg 1 . dataWe $end
$var reg 32 & instrMemAddr [31:0] $end
$var wire 32 5 instrCode [31:0] $end
$var reg 32 ( dataAddr [31:0] $end
$var reg 32 ) dataWData [31:0] $end
$var wire 32 6 dataRData [31:0] $end
$var reg 1 7 isJAL_internal $end
$var reg 1 8 regFileWe $end
$var reg 4 9 aluControl [3:0] $end
$var reg 1 : aluSrcMuxSel $end
$var reg 2 ; RFWDSrcMuxSel [1:0] $end
$var reg 1 < branch $end
$var reg 1 = aluASelect $end
$var reg 1 > LUType $end
$var reg 1 ? AUType $end
$var reg 1 @ isJALR $end
$scope module U_CU $end
$var wire 32 5 instrCode [31:0] $end
$var reg 1 8 regFileWe $end
$var reg 4 9 aluControl [3:0] $end
$var reg 1 : aluSrcMuxSel $end
$var reg 1 . dataWe $end
$var reg 2 ; RFWDSrcMuxSel [1:0] $end
$var reg 1 < branch $end
$var reg 1 = aluASelect $end
$var reg 1 > LUType $end
$var reg 1 ? AUType $end
$var reg 1 7 isJAL $end
$var reg 1 @ isJALR $end
$var wire 7 A opcode [6:0] $end
$var wire 4 B operators [3:0] $end
$var reg 7 C signals [6:0] $end
$upscope $end
$scope module U_DP $end
$var wire 1 $ clk $end
$var wire 1 % reset $end
$var wire 1 D regFileWe $end
$var wire 4 E aluControl [3:0] $end
$var wire 1 F aluSrcMuxSel $end
$var wire 2 G RFWDSrcMuxSel [1:0] $end
$var wire 1 H branch $end
$var wire 1 I aluASelect $end
$var wire 1 J isJALR $end
$var reg 32 & instrMemAddr [31:0] $end
$var wire 32 5 instrCode [31:0] $end
$var reg 32 ( dataAddr [31:0] $end
$var reg 32 ) dataWData [31:0] $end
$var wire 32 6 dataRData [31:0] $end
$var reg 32 K RFWDSrcMuxOut [31:0] $end
$var reg 32 L aluResult [31:0] $end
$var reg 32 M RFData1 [31:0] $end
$var reg 32 N RFData2 [31:0] $end
$var reg 32 O PCOutData [31:0] $end
$var reg 1 P btaken $end
$var reg 1 Q PCSrcMuxSel $end
$var reg 32 R immExt [31:0] $end
$var reg 32 S aluSrcMuxOut [31:0] $end
$var reg 32 T PC_Imm_AdderResult [31:0] $end
$var reg 32 U PC_4_AdderResult [31:0] $end
$var reg 32 V PCSrcMuxOut [31:0] $end
$var reg 32 W JALR_Target [31:0] $end
$var reg 32 X aluAInput [31:0] $end
$var reg 32 Y branchTarget [31:0] $end
$scope module U_RegFile $end
$var wire 1 $ clk $end
$var wire 1 D we $end
$var wire 5 Z RAddr1 [4:0] $end
$var wire 5 [ RAddr2 [4:0] $end
$var wire 5 \ WAddr [4:0] $end
$var wire 32 K WData [31:0] $end
$var reg 32 M RData1 [31:0] $end
$var reg 32 N RData2 [31:0] $end
$scope begin Block205_6 $end
$var reg 32 ] i $end
$upscope $end
$upscope $end
$scope module U_ALUSrcMux $end
$var wire 1 F sel $end
$var wire 32 ^ x0 [31:0] $end
$var wire 32 _ x1 [31:0] $end
$var reg 32 S y [31:0] $end
$upscope $end
$scope module U_ALU $end
$var wire 4 E aluControl [3:0] $end
$var wire 32 ` a [31:0] $end
$var wire 32 a b [31:0] $end
$var reg 32 L result [31:0] $end
$var reg 1 P btaken $end
$upscope $end
$scope module U_ImmExtend $end
$var wire 32 5 instrCode [31:0] $end
$var reg 32 R immExt [31:0] $end
$var wire 7 b opcode [6:0] $end
$var wire 3 c func3 [2:0] $end
$upscope $end
$scope module U_PC_Imm_Adder $end
$var wire 32 d a [31:0] $end
$var wire 32 e b [31:0] $end
$var reg 32 T y [31:0] $end
$upscope $end
$scope module U_PC_4_Adder $end
$var wire 32 f a [31:0] $end
$var wire 32 g b [31:0] $end
$var reg 32 U y [31:0] $end
$upscope $end
$scope module U_JALRTargetMux $end
$var wire 1 J sel $end
$var wire 32 h x0 [31:0] $end
$var wire 32 i x1 [31:0] $end
$var reg 32 Y y [31:0] $end
$upscope $end
$scope module U_PCSrcMux $end
$var wire 1 j sel $end
$var wire 32 k x0 [31:0] $end
$var wire 32 l x1 [31:0] $end
$var reg 32 V y [31:0] $end
$upscope $end
$scope module U_PC $end
$var wire 1 $ clk $end
$var wire 1 % reset $end
$var wire 32 m d [31:0] $end
$var reg 32 O q [31:0] $end
$upscope $end
$upscope $end
$upscope $end
$scope module U_rom $end
$var wire 10 n addr [9:0] $end
$var reg 32 ' dout [31:0] $end
$upscope $end
$scope module U_ram $end
$var wire 1 $ clk $end
$var wire 1 o we $end
$var wire 32 p addr [31:0] $end
$var wire 32 q wData [31:0] $end
$var reg 32 * rData [31:0] $end
$upscope $end
$upscope $end
$scope begin Block111_27 $end
$var reg 32 r type_str $end
$var reg 32 s pc [31:0] $end
$var reg 32 t instr [31:0] $end
$var reg 32 u x1 [31:0] $end
$var reg 32 v x2 [31:0] $end
$var reg 32 w x7 [31:0] $end
$var reg 32 x x8 [31:0] $end
$var reg 32 y imm_u [31:0] $end
$var reg 32 z imm_i [31:0] $end
$var reg 32 { imm_s [31:0] $end
$var reg 32 | imm_b [31:0] $end
$var reg 32 } imm_jal [31:0] $end
$var reg 32 ~ imm_jalr [31:0] $end
$upscope $end
$scope task force_pc_to_address $end
$var reg 32 !! address [31:0] $end
$upscope $end
$scope function get_instr_type $end
$var reg 32 "! get_instr_type $end
$var reg 32 #! instr [31:0] $end
$var reg 7 $! opcode [6:0] $end
$upscope $end
$upscope $end
$enddefinitions $end
#0
$dumpvars
0!
bx !!
1"
b0 "!
b0 #
bx #!
0$
bx $!
1%
b0 &
b100010000001000110011 '
b1011000000001100 (
b1011 )
bx *
x+
bx ,
x-
0.
bx /
x0
x1
x2
x3
x4
b100010000001000110011 5
bx 6
07
18
b0 9
0:
b0 ;
0<
0=
x>
x?
0@
b110011 A
b0 B
b1000000 C
1D
b0 E
0F
b0 G
0H
0I
0J
b1011000000001100 K
b1011000000001100 L
b1100 M
b1011 N
b0 O
0P
0Q
bx R
b1011 S
bx T
b100 U
b100 V
bx W
b1100 X
bx Y
b10 Z
b1 [
b100 \
b100000 ]
b1011 ^
bx _
b1100 `
b1011 a
b110011 b
b0 c
bx d
b0 e
b100 f
b0 g
bx h
bx i
0j
b100 k
bx l
b100 m
b0 n
0o
b1011000000001100 p
b1011 q
b0 r
bx s
bx t
bx u
bx v
bx w
bx x
bx y
bx z
bx {
bx |
bx }
bx ~
$end
#5000
1!
1$
b1100 M
b1011 N
b0 O
#10000
0!
0$
#15000
1!
1$
b0 O
#20000
0!
0$
#25000
1!
1$
b0 O
#30000
0!
0$
#35000
1!
1$
b0 O
#40000
0!
0$
#45000
1!
1$
b0 O
#50000
0!
0$
#55000
1!
1$
b0 O
#60000
0!
0$
#65000
1!
1$
b0 O
#70000
0!
0$
#75000
1!
1$
b0 O
#80000
0!
0$
#85000
1!
1$
b0 O
#90000
0!
0$
#95000
1!
1$
b0 O
#100000
0!
0"
0$
0%
#105000
1!
b1 #
b100010000001000110011 #!
1$
b110011 $!
b100 &
b1000000000100010000001010110011 '
b1 (
b1011 )
bx *
b1000000000100010000001010110011 5
b1000 9
b1000 B
b1000 E
b1 K
b1 L
b100 O
0P
bx R
bx T
b1000 U
b1000 V
bx W
b1100 X
b10 Z
b1 [
b101 \
b100 e
b100 g
b1000 k
b1000 m
b1 n
b1 p
b0 s
b100010000001000110011 t
b1011 u
b1100 v
b10001 w
b10010 x
b100010000000000000000 y
b1 z
b100 {
b100 |
b10000100000000000 }
b1 ~
#110000
0!
0$
#115000
1!
b10 #
b1000000000100010000001010110011 #!
1$
b1000 &
b100010001001100110011 '
b110000000000000 (
b1011 )
bx *
b100010001001100110011 5
b1 9
b1 B
b1 E
b110000000000000 K
b110000000000000 L
b1100 M
b1011 N
b1000 O
1P
bx R
bx T
b1100 U
b1100 V
bx W
b1100 X
b10 Z
b1 [
b110 \
b1 c
b1000 e
b1000 g
b1100 k
b1100 m
b10 n
b110000000000000 p
b100 s
b1000000000100010000001010110011 t
b1000000000100010000000000000000 y
b10000000001 z
b10000000101 {
b110000000100 |
b10000110000000000 }
b10000000001 ~
#120000
0!
0$
#125000
1!
b11 #
b100010001001100110011 #!
1$
b1100 &
b100010010001110110011 '
b0 (
b1011 )
bx *
b100010010001110110011 5
b10 9
b10 B
b10 E
b0 K
b0 L
b1100 M
b1011 N
b1100 O
0P
bx R
bx T
b10000 U
b10000 V
bx W
b1100 X
b10 Z
b1 [
b111 \
b10 c
b1100 e
b1100 g
b10000 k
b10000 m
b11 n
b0 p
b1000 s
b100010001001100110011 t
b100010001000000000000 y
b1 z
b110 {
b110 |
b10001100000000000 }
b1 ~
#130000
0!
0$
#135000
1!
b100 #
b100010010001110110011 #!
1$
b10000 &
b100010011010000110011 '
b0 (
b1011 )
b100010011010000110011 5
b11 9
b11 B
b11 E
b0 L
b1100 M
b1011 N
b10000 O
0P
bx R
bx T
b10100 U
b10100 V
bx W
b1100 X
b10 Z
b1 [
b1000 \
b11 c
b10000 e
b10000 g
b10100 k
b10100 m
b100 n
b1100 s
b100010010001110110011 t
b100010010000000000000 y
b111 {
b100000000110 |
b10010100000000000 }
#140000
0!
0$
#145000
1!
b101 #
b100010011010000110011 #!
1$
b10100 &
b100010100010010110011 '
b111 (
b1011 )
bx *
b100010100010010110011 5
b100 9
b100 B
b100 E
b111 K
b111 L
b1100 M
b1011 N
b10100 O
0P
bx R
bx T
b11000 U
b11000 V
bx W
b1100 X
b10 Z
b1 [
b1001 \
b100 c
b10100 e
b10100 g
b11000 k
b11000 m
b101 n
b111 p
b10000 s
b100010011010000110011 t
b0 w
b100010011000000000000 y
b1000 {
b1000 |
b10011100000000000 }
#150000
0!
0$
#155000
1!
b110 #
b100010100010010110011 #!
1$
b11000 &
b100010101010100110011 '
b0 (
b1011 )
bx *
b100010101010100110011 5
b101 9
b101 B
b101 E
b0 K
b0 L
b1100 M
b1011 N
b11000 O
1P
bx R
bx T
b11100 U
b11100 V
bx W
b1100 X
b10 Z
b1 [
b1010 \
b101 c
b11000 e
b11000 g
b11100 k
b11100 m
b110 n
b0 p
b10100 s
b100010100010010110011 t
b0 x
b100010100000000000000 y
b1001 {
b100000001000 |
b10100100000000000 }
#160000
0!
0$
#165000
1!
b111 #
b100010101010100110011 #!
1$
b11100 &
b1000000000100010101010110110011 '
b0 (
b1011 )
b1000000000100010101010110110011 5
b1101 9
b1101 B
b1101 E
b0 L
b1100 M
b1011 N
b11100 O
1P
bx R
bx T
b100000 U
b100000 V
bx W
b1100 X
b10 Z
b1 [
b1011 \
b11100 e
b11100 g
b100000 k
b100000 m
b111 n
b11000 s
b100010101010100110011 t
b100010101000000000000 y
b1010 {
b1010 |
b10101100000000000 }
#170000
0!
0$
#175000
1!
b1000 #
b1000000000100010101010110110011 #!
1$
b100000 &
b100010110011000110011 '
b1111 (
b1011 )
bx *
b100010110011000110011 5
b110 9
b110 B
b110 E
b1111 K
b1111 L
b1100 M
b1011 N
b100000 O
0P
bx R
bx T
b100100 U
b100100 V
bx W
b1100 X
b10 Z
b1 [
b1100 \
b110 c
b100000 e
b100000 g
b100100 k
b100100 m
b1000 n
b1111 p
b11100 s
b1000000000100010101010110110011 t
b1000000000100010101000000000000 y
b10000000001 z
b10000001011 {
b110000001010 |
b10101110000000000 }
b10000000001 ~
#180000
0!
0$
#185000
1!
b1001 #
b100010110011000110011 #!
1$
b100100 &
b100010111011010110011 '
b1000 (
b1011 )
bx *
b100010111011010110011 5
b111 9
b111 B
b111 E
b1000 K
b1000 L
b1100 M
b1011 N
b100100 O
1P
bx R
bx T
b101000 U
b101000 V
bx W
b1100 X
b10 Z
b1 [
b1101 \
b111 c
b100100 e
b100100 g
b101000 k
b101000 m
b1001 n
b1000 p
b100000 s
b100010110011000110011 t
b100010110000000000000 y
b1 z
b1100 {
b1100 |
b10110100000000000 }
b1 ~
#190000
0!
0$
#195000
1!
b1010 #
b100010111011010110011 #!
1$
b101000 &
b100000000000010010011 '
b1000000000000 (
b1011 )
bx *
0.
b100000000000010010011 5
18
b0 9
1:
b0 ;
0<
0=
0@
b10011 A
b0 B
b1100000 C
b0 E
1F
b1000000000000 K
b1000000000000 L
b0 M
b1011 N
b101000 O
0P
b1 R
b1 S
b101001 T
b101100 U
b101100 V
b1 W
b0 X
b101001 Y
b0 Z
b1 [
b1 \
b1 _
b0 `
b1 a
b10011 b
b0 c
b1 d
b101000 e
b101000 g
b101001 h
b1 i
b101100 k
b101001 l
b101100 m
b1010 n
b1000000000000 p
b100100 s
b100010111011010110011 t
b100010111000000000000 y
b1101 {
b100000001100 |
b10111100000000000 }
#200000
0!
b1011000 !!
0$
#205000
1!
b1011 #
b100000000000010010011 #!
1$
b10011 $!
b1011000 &
b10001110110111 '
bx (
b0 )
bx *
0.
b10001110110111 5
18
b0 9
1:
b0 ;
0<
1=
0@
b110111 A
b10 B
b1100001 C
1I
bx K
bx L
b0 M
b0 N
b1011000 O
xP
bx R
bx S
bx T
b1011100 U
b1011100 V
bx W
b1011000 X
bx Y
b0 Z
b0 [
b111 \
b0 ^
bx _
b1011000 `
bx a
b110111 b
b10 c
bx d
b1011000 e
b1011000 g
bx h
bx i
b1011100 k
bx l
b1011100 m
b10110 n
bx p
b0 q
b101000 s
b100000000000010010011 t
b100000000000000000000 y
b1 {
b100000000000 |
b100000000000 }
#210000
0!
0$
#215000
1!
b1100 #
b10001110110111 #!
1$
b110111 $!
b0 M
b0 N
b1011000 s
b10001110110111 t
b1000000000000 u
b10000000000000 y
b0 z
b111 {
b100000000110 |
b10000000000000 }
b0 ~
#220000
0!
0$
#225000
1!
b1101 #
1$
bx w
#230000
0!
0$
#235000
1!
b1110 #
1$
#240000
0!
0$
#245000
1!
b1111 #
1$
b1011100 &
b11010000010111 '
bx (
b0 )
0.
b11010000010111 5
18
b0 9
1:
b0 ;
0<
1=
0@
b10111 A
b11 B
b1100001 C
bx L
b1011100 O
xP
bx R
bx T
b1100000 U
b1100000 V
bx W
b1011100 X
b0 Z
b0 [
b1000 \
b1011100 `
b10111 b
b11 c
b1011100 e
b1011100 g
b1100000 k
b1100000 m
b10111 n
#250000
0!
0$
#255000
1!
b10000 #
b11010000010111 #!
1$
b10111 $!
b1100000 &
b10000000000000011101111 '
b1100100 (
b1011000000001100 )
bx *
0.
b10000000000000011101111 5
17
18
b1010 9
0:
b0 ;
1<
1=
0@
b1101111 A
b0 B
b1000011 C
b1010 E
0F
1H
b1100100 K
b1100100 L
b0 M
b1011000000001100 N
b1100000 O
1P
1Q
b100 R
b1011000000001100 S
b1100100 T
b1100100 U
b1100100 V
b100 W
b1100000 X
b1100100 Y
b0 Z
b100 [
b1 \
b1011000000001100 ^
b100 _
b1100000 `
b1011000000001100 a
b1101111 b
b0 c
b100 d
b1100000 e
b1100000 g
b1100100 h
b100 i
1j
b1100100 k
b1100100 l
b1100100 m
b11000 n
b1100100 p
b1011000000001100 q
b1011100 s
b11010000010111 t
b11000000000000 y
b1000 {
b1000 |
b11000000000000 }
#260000
0!
0$
#265000
1!
b10001 #
b10000000000000011101111 #!
1$
b1101111 $!
b1100100 &
b10000001000000101100111 '
b1101000 (
b1011000000001100 )
bx *
0.
b10000001000000101100111 5
07
18
b1011 9
0:
b0 ;
1<
1=
1@
b1100111 A
b1000011 C
b1011 E
1J
b1101000 K
b1101000 L
b1100100 M
b1011000000001100 N
b1100100 O
1P
b100 R
b1101000 T
b1101000 U
b1101000 V
b1101000 W
b1100100 X
b1101000 Y
b1 Z
b100 [
b10 \
b100 _
b1100100 `
b1100111 b
b100 d
b1100100 e
b1100100 g
b1101000 h
b1101000 i
b1101000 k
b1101000 l
b1101000 m
b11001 n
b1101000 p
b1100000 s
b10000000000000011101111 t
bx x
b10000000000000000000000 y
b100 z
b1 {
b100000000000 |
b100 }
b100 ~
#270000
0!
0$
#275000
1!
b10010 #
b10000001000000101100111 #!
1$
b1100111 $!
b1101000 &
b1010110111 '
bx (
b0 )
bx *
0.
b1010110111 5
18
b0 9
1:
b0 ;
0<
1=
0@
b110111 A
b1100001 C
b0 E
1F
0H
0J
bx K
bx L
b0 M
b0 N
b1101000 O
xP
0Q
bx R
bx S
bx T
b1101100 U
b1101100 V
bx W
b1101000 X
bx Y
b0 Z
b0 [
b101 \
b0 ^
bx _
b1101000 `
bx a
b110111 b
bx d
b1101000 e
b1101000 g
bx h
bx i
0j
b1101100 k
bx l
b1101100 m
b11010 n
bx p
b0 q
b1100100 s
b10000001000000101100111 t
b1100100 u
b10000001000000000000000 y
b10 {
b10 |
b1000000000000100 }
#280000
0!
0$
#285000
1!
b10011 #
b1010110111 #!
1$
b110111 $!
b1101100 &
b10000101010001010000011 '
bx (
b1011000000001100 )
bx *
0.
b10000101010001010000011 5
18
b0 9
1:
b1 ;
0<
0=
0@
b11 A
b10 B
b1100100 C
b1 G
0I
bx L
bx M
b1011000000001100 N
b1101100 O
xP
b100 R
b100 S
b1110000 T
b1110000 U
b1110000 V
bx W
bx X
b1110000 Y
b101 Z
b100 [
b101 \
b1011000000001100 ^
b100 _
bx `
b100 a
b11 b
b10 c
b100 d
b1101100 e
b1101100 g
b1110000 h
b1110000 k
b1110000 l
b1110000 m
b11011 n
bx p
b1011000000001100 q
b1101000 s
b1010110111 t
b1101000 v
b0 y
b0 z
b101 {
b100000000100 |
b0 }
b0 ~
#290000
0!
0$
#295000
1!
b10100 #
b10000101010001010000011 #!
1$
b11 $!
b1110000 &
b10100101010000000100011 '
bx (
bx )
1.
b10100101010000000100011 5
08
b0 9
1:
b0 ;
0<
0=
0@
b100011 A
b110000 C
0D
b0 G
bx L
bx M
bx N
b1110000 O
xP
b0 R
b0 S
b1110000 T
b1110100 U
b1110100 V
bx W
bx X
b1110000 Y
b101 Z
b101 [
b0 \
bx ^
b0 _
b0 a
b100011 b
b0 d
b1110000 e
b1110000 g
b1110000 h
b1110100 k
b1110000 l
b1110100 m
b11100 n
1o
bx q
b1101100 s
b10000101010001010000011 t
b10000101010000000000000 y
b100 z
b101010000000000100 }
b100 ~
#300000
0!
0$
#305000
1!
b10101 #
b10100101010000000100011 #!
1$
b100011 $!
b1110100 &
b10000000000000011101111 '
b1111000 (
b1011000000001100 )
bx *
0.
b10000000000000011101111 5
17
18
b1010 9
0:
b0 ;
1<
1=
0@
b1101111 A
b0 B
b1000011 C
1D
b1010 E
0F
1H
1I
b1111000 K
b1111000 L
b0 M
b1011000000001100 N
b1110100 O
1P
1Q
b100 R
b1011000000001100 S
b1111000 T
b1111000 U
b1111000 V
b100 W
b1110100 X
b1111000 Y
b0 Z
b100 [
b1 \
b1011000000001100 ^
b100 _
b1110100 `
b1011000000001100 a
b1101111 b
b0 c
b100 d
b1110100 e
b1110100 g
b1111000 h
b100 i
1j
b1111000 k
b1111000 l
b1111000 m
b11101 n
0o
b1111000 p
b1011000000001100 q
b1110000 s
b10100101010000000100011 t
b10100101010000000000000 y
b101 z
b0 {
b0 |
b101010100000000100 }
b101 ~
#310000
0!
0$
#315000
1!
b10110 #
b10000000000000011101111 #!
1$
b1101111 $!
b1111000 &
b1000000001100111 '
b1111100 (
b0 )
bx *
0.
b1000000001100111 5
07
18
b1011 9
0:
b0 ;
1<
1=
1@
b1100111 A
b1000011 C
b1011 E
1J
b1111100 K
b1111100 L
b1111000 M
b0 N
b1111000 O
1P
b0 R
b0 S
b1111000 T
b1111100 U
b1111000 V
b1111000 W
b1111000 X
b1111000 Y
b1 Z
b0 [
b0 \
b0 ^
b0 _
b1111000 `
b0 a
b1100111 b
b0 d
b1111000 e
b1111000 g
b1111000 h
b1111000 i
b1111100 k
b1111000 l
b1111000 m
b11110 n
b1111100 p
b0 q
b1110100 s
b10000000000000011101111 t
b10000000000000000000000 y
b100 z
b1 {
b100000000000 |
b100 }
b100 ~
#320000
0!
0$
#325000
1!
b10111 #
b1000000001100111 #!
1$
b1100111 $!
b1111000 M
b0 N
b1111000 O
b1111000 s
b1000000001100111 t
b1111000 u
b1000000000000000 y
b0 z
b0 {
b0 |
b1000000000000000 }
b0 ~
#330000
0!
0$
#335000
1!
b11000 #
1$
b1111000 O
#340000
0!
0$
#345000
1!
b11001 #
1$
b1111000 O
#350000
0!
0$
#355000
1!
b11010 #
1$
b1111000 O
#360000
0!
0$
#365000
1!
b11011 #
1$
b1111000 O
#370000
0!
0$
#375000
1!
b11100 #
1$
b1111000 O
#380000
0!
0$
#385000
1!
b11101 #
1$
b1111000 O
#390000
0!
0$
#395000
1!
b11110 #
1$
b1111000 O
#400000
0!
0$
#405000
1!
b11111 #
1$
b1111000 O
#410000
0!
0$
#415000
1!
b100000 #
1$
b1111000 O
#420000
0!
0$
#425000
1!
b100001 #
1$
b1111000 O
#430000
0!
0$
#435000
1!
b100010 #
1$
b1111000 O
#440000
0!
0$
#445000
1!
b1011100 !!
b100011 #
1$
b1011100 &
b11010000010111 '
bx (
b0 )
bx *
0.
b11010000010111 5
18
b0 9
1:
b0 ;
0<
1=
0@
b10111 A
b11 B
b1100001 C
b0 E
1F
0H
0J
bx K
bx L
b0 M
b0 N
b1011100 O
xP
0Q
bx R
bx S
bx T
b1100000 U
b1100000 V
bx W
b1011100 X
bx Y
b0 Z
b0 [
b1000 \
bx _
b1011100 `
bx a
b10111 b
b11 c
bx d
b1011100 e
b1011100 g
bx h
bx i
0j
b1100000 k
bx l
b1100000 m
b10111 n
bx p
#450000
0!
0$
#455000
1!
b100100 #
b11010000010111 #!
1$
b10111 $!
b1011100 s
b11010000010111 t
b11000000000000 y
b1000 {
b1000 |
b11000000000000 }
#460000
0!
0$
#465000
1!
b100101 #
1$
#470000
0!
0$
#475000
1!
b100110 #
1$
#480000
0!
0$
#485000
1!
b100111 #
1$
b1100000 &
b10000000000000011101111 '
b1100100 (
b1011000000001100 )
bx *
0.
b10000000000000011101111 5
17
18
b1010 9
0:
b0 ;
1<
1=
0@
b1101111 A
b0 B
b1000011 C
b1010 E
0F
1H
b1100100 K
b1100100 L
b0 M
b1011000000001100 N
b1100000 O
1P
1Q
b100 R
b1011000000001100 S
b1100100 T
b1100100 U
b1100100 V
b100 W
b1100000 X
b1100100 Y
b0 Z
b100 [
b1 \
b1011000000001100 ^
b100 _
b1100000 `
b1011000000001100 a
b1101111 b
b0 c
b100 d
b1100000 e
b1100000 g
b1100100 h
b100 i
1j
b1100100 k
b1100100 l
b1100100 m
b11000 n
b1100100 p
b1011000000001100 q
#490000
0!
0$
#495000
1!
b101000 #
b10000000000000011101111 #!
1$
b1101111 $!
b1100100 &
b10000001000000101100111 '
b1101000 (
b1011000000001100 )
bx *
0.
b10000001000000101100111 5
07
18
b1011 9
0:
b0 ;
1<
1=
1@
b1100111 A
b1000011 C
b1011 E
1J
b1101000 K
b1101000 L
b1100100 M
b1011000000001100 N
b1100100 O
1P
b100 R
b1101000 T
b1101000 U
b1101000 V
b1101000 W
b1100100 X
b1101000 Y
b1 Z
b100 [
b10 \
b100 _
b1100100 `
b1100111 b
b100 d
b1100100 e
b1100100 g
b1101000 h
b1101000 i
b1101000 k
b1101000 l
b1101000 m
b11001 n
b1101000 p
b1100000 s
b10000000000000011101111 t
b10000000000000000000000 y
b100 z
b1 {
b100000000000 |
b100 }
b100 ~
#500000
0!
0$
#505000
1!
b101001 #
b10000001000000101100111 #!
1$
b1100111 $!
b1101000 &
b1010110111 '
bx (
b0 )
bx *
0.
b1010110111 5
18
b0 9
1:
b0 ;
0<
1=
0@
b110111 A
b1100001 C
b0 E
1F
0H
0J
bx K
bx L
b0 M
b0 N
b1101000 O
xP
0Q
bx R
bx S
bx T
b1101100 U
b1101100 V
bx W
b1101000 X
bx Y
b0 Z
b0 [
b101 \
b0 ^
bx _
b1101000 `
bx a
b110111 b
bx d
b1101000 e
b1101000 g
bx h
bx i
0j
b1101100 k
bx l
b1101100 m
b11010 n
bx p
b0 q
b1100100 s
b10000001000000101100111 t
b1100100 u
b10000001000000000000000 y
b10 {
b10 |
b1000000000000100 }
#510000
0!
0$
#515000
1!
b101010 #
b1010110111 #!
1$
b110111 $!
b1101100 &
b10000101010001010000011 '
bx (
b1011000000001100 )
bx *
0.
b10000101010001010000011 5
18
b0 9
1:
b1 ;
0<
0=
0@
b11 A
b10 B
b1100100 C
b1 G
0I
bx L
bx M
b1011000000001100 N
b1101100 O
xP
b100 R
b100 S
b1110000 T
b1110000 U
b1110000 V
bx W
bx X
b1110000 Y
b101 Z
b100 [
b101 \
b1011000000001100 ^
b100 _
bx `
b100 a
b11 b
b10 c
b100 d
b1101100 e
b1101100 g
b1110000 h
b1110000 k
b1110000 l
b1110000 m
b11011 n
bx p
b1011000000001100 q
b1101000 s
b1010110111 t
b0 y
b0 z
b101 {
b100000000100 |
b0 }
b0 ~
#520000
0!
0$
#525000
1!
b101011 #
b10000101010001010000011 #!
1$
b11 $!
b1110000 &
b10100101010000000100011 '
bx (
bx )
1.
b10100101010000000100011 5
08
b0 9
1:
b0 ;
0<
0=
0@
b100011 A
b110000 C
0D
b0 G
bx L
bx M
bx N
b1110000 O
xP
b0 R
b0 S
b1110000 T
b1110100 U
b1110100 V
bx W
bx X
b1110000 Y
b101 Z
b101 [
b0 \
bx ^
b0 _
b0 a
b100011 b
b0 d
b1110000 e
b1110000 g
b1110000 h
b1110100 k
b1110000 l
b1110100 m
b11100 n
1o
bx q
b1101100 s
b10000101010001010000011 t
b10000101010000000000000 y
b100 z
b101010000000000100 }
b100 ~
#530000
0!
0$
#535000
1!
b101100 #
b10100101010000000100011 #!
1$
b100011 $!
b1110100 &
b10000000000000011101111 '
b1111000 (
b1011000000001100 )
bx *
0.
b10000000000000011101111 5
17
18
b1010 9
0:
b0 ;
1<
1=
0@
b1101111 A
b0 B
b1000011 C
1D
b1010 E
0F
1H
1I
b1111000 K
b1111000 L
b0 M
b1011000000001100 N
b1110100 O
1P
1Q
b100 R
b1011000000001100 S
b1111000 T
b1111000 U
b1111000 V
b100 W
b1110100 X
b1111000 Y
b0 Z
b100 [
b1 \
b1011000000001100 ^
b100 _
b1110100 `
b1011000000001100 a
b1101111 b
b0 c
b100 d
b1110100 e
b1110100 g
b1111000 h
b100 i
1j
b1111000 k
b1111000 l
b1111000 m
b11101 n
0o
b1111000 p
b1011000000001100 q
b1110000 s
b10100101010000000100011 t
b10100101010000000000000 y
b101 z
b0 {
b0 |
b101010100000000100 }
b101 ~
#540000
0!
0$
#545000
1!
b101101 #
b10000000000000011101111 #!
1$
b1101111 $!
b1111000 &
b1000000001100111 '
b1111100 (
b0 )
bx *
0.
b1000000001100111 5
07
18
b1011 9
0:
b0 ;
1<
1=
1@
b1100111 A
b1000011 C
b1011 E
1J
b1111100 K
b1111100 L
b1111000 M
b0 N
b1111000 O
1P
b0 R
b0 S
b1111000 T
b1111100 U
b1111000 V
b1111000 W
b1111000 X
b1111000 Y
b1 Z
b0 [
b0 \
b0 ^
b0 _
b1111000 `
b0 a
b1100111 b
b0 d
b1111000 e
b1111000 g
b1111000 h
b1111000 i
b1111100 k
b1111000 l
b1111000 m
b11110 n
b1111100 p
b0 q
b1110100 s
b10000000000000011101111 t
b10000000000000000000000 y
b100 z
b1 {
b100000000000 |
b100 }
b100 ~
#550000
0!
0$
#555000
1!
b101110 #
b1000000001100111 #!
1$
b1100111 $!
b1111000 O
b1111000 s
b1000000001100111 t
b1111000 u
b1000000000000000 y
b0 z
b0 {
b0 |
b1000000000000000 }
b0 ~
#560000
0!
0$
#565000
1!
b101111 #
1$
b1111000 O
#570000
0!
0$
#575000
1!
b110000 #
1$
b1111000 O
#580000
0!
0$
#585000
1!
b110001 #
1$
b1111000 O
#590000
0!
0$
#595000
1!
b110010 #
1$
b1111000 O
#600000
0!
0$
#605000
1!
b110011 #
1$
b1111000 O
#610000
0!
0$
#615000
1!
b110100 #
1$
b1111000 O
#620000
0!
0$
#625000
1!
b110101 #
1$
b1111000 O
#630000
0!
0$
#635000
1!
b110110 #
1$
b1111000 O
#640000
0!
0$
#645000
1!
b110111 #
1$
b1111000 O
#650000
0!
0$
#655000
1!
b111000 #
1$
b1111000 O
#660000
0!
0$
#665000
1!
b111001 #
1$
b1111000 O
#670000
0!
0$
#675000
1!
b111010 #
1$
b1111000 O
#680000
0!
0$
#685000
1!
b1100000 !!
b111011 #
1$
b1100000 &
b10000000000000011101111 '
b1100100 (
b1011000000001100 )
bx *
0.
b10000000000000011101111 5
17
18
b1010 9
0:
b0 ;
1<
1=
0@
b1101111 A
b1000011 C
b1010 E
0J
b1100100 K
b1100100 L
b0 M
b1011000000001100 N
b1100000 O
1P
b100 R
b1011000000001100 S
b1100100 T
b1100100 U
b1100100 V
b100 W
b1100000 X
b1100100 Y
b0 Z
b100 [
b1 \
b1011000000001100 ^
b100 _
b1100000 `
b1011000000001100 a
b1101111 b
b100 d
b1100000 e
b1100000 g
b1100100 h
b100 i
b1100100 k
b1100100 l
b1100100 m
b11000 n
b1100100 p
b1011000000001100 q
